<?xml version='1.0' encoding='UTF-8'?>
<kml xmlns='http://www.opengis.net/kml/2.2'>
	<Document>
		<name>Мельница – культурная карта локации</name>
		<description><![CDATA[Мы отметили самые интересные места для культурной прогулки по городу вокруг Лофта Мельница]]></description>
		<Folder>
			<name>Локация</name>
			<Placemark>
				<styleUrl>#icon-cafe</styleUrl>
				<name>Кофемолка</name>
				<Point>
					<coordinates>82.92288422584534,55.023434317061614,0.0</coordinates>
				</Point>
			</Placemark>
			<Placemark>
				<styleUrl>#icon-cafe</styleUrl>
				<name>Перчини - ресторан</name>
				<Point>
					<coordinates>82.91926860809326,55.02957175918158,0.0</coordinates>
				</Point>
			</Placemark>
			<Placemark>
				<styleUrl>#icon-cafe</styleUrl>
				<name>Кондитерская Кузина</name>
				<Point>
					<coordinates>82.91571736335754,55.03113979254472,0.0</coordinates>
				</Point>
			</Placemark>
			<Placemark>
				<styleUrl>#icon-cafe</styleUrl>
				<name>Кардамон кофейня</name>
				<Point>
					<coordinates>82.91553497314453,55.025660632146945,0.0</coordinates>
				</Point>
			</Placemark>
		</Folder>
		<Style id='icon-melnica'>
			<IconStyle>
				<color>ffffffff</color>
				<scale>1.1</scale>
				<Icon>
					<href>http://melnicaloft.ru/css/images/icons/melnica.png</href>
				</Icon>
			</IconStyle>
		</Style>
		<Style id='icon-park'>
			<IconStyle>
				<color>ffffffff</color>
				<scale>1.1</scale>
				<Icon>
					<href>http://melnicaloft.ru/css/images/icons/park.png</href>
				</Icon>
			</IconStyle>
		</Style>
		<Style id='icon-cafe'>
			<IconStyle>
				<color>ffffffff</color>
				<scale>1.1</scale>
				<Icon>
					<href>http://melnicaloft.ru/css/images/icons/cafe.png</href>
				</Icon>
			</IconStyle>
		</Style>
		<Style id='icon-cinema'>
			<IconStyle>
				<color>ffffffff</color>
				<scale>1.1</scale>
				<Icon>
					<href>http://melnicaloft.ru/css/images/icons/cinema.png</href>
				</Icon>
			</IconStyle>
		</Style>
		<Style id='icon-gallery'>
			<IconStyle>
				<color>ffffffff</color>
				<scale>1.1</scale>
				<Icon>
					<href>http://melnicaloft.ru/css/images/icons/gallery.png</href>
				</Icon>
			</IconStyle>
		</Style>
		<Style id='icon-architecture'>
			<IconStyle>
				<color>ffffffff</color>
				<scale>1.1</scale>
				<Icon>
					<href>http://melnicaloft.ru/css/images/icons/museum.png</href>
				</Icon>
			</IconStyle>
		</Style>
		<Style id='icon-music'>
			<IconStyle>
				<color>ffffffff</color>
				<scale>1.1</scale>
				<Icon>
					<href>http://melnicaloft.ru/css/images/icons/music.png</href>
				</Icon>
			</IconStyle>
		</Style>
		<Style id='icon-interesting'>
			<IconStyle>
				<color>ffffffff</color>
				<scale>1.1</scale>
				<Icon>
					<href>http://melnicaloft.ru/css/images/icons/nice.png</href>
				</Icon>
			</IconStyle>
		</Style>
		<Style id='icon-theater'>
			<IconStyle>
				<color>ffffffff</color>
				<scale>1.1</scale>
				<Icon>
					<href>http://melnicaloft.ru/css/images/icons/museum.png</href>
				</Icon>
			</IconStyle>
		</Style>
	</Document>
</kml>
