<?xml version='1.0' encoding='UTF-8'?>
<kml xmlns='http://www.opengis.net/kml/2.2'>
	<Document>
		<name>Мельница – культурная карта локации</name>
		<description><![CDATA[Мы отметили самые интересные места для культурной прогулки по городу вокруг Лофта Мельница]]></description>
		<Folder>
			<name>Локация</name>
			<Placemark>
				<styleUrl>#icon-melnica</styleUrl>
				<name>Лофт Мельница</name>
				<description><![CDATA[Лофт-проект — новое осмысление городского индустриального наследия и новая форма культурных коммуникаций в обществе]]></description>
				<Point>
					<coordinates>82.91188314557076,55.0193073120561,0.0</coordinates>
				</Point>
			</Placemark>
			<Placemark>
				<styleUrl>#icon-melnica</styleUrl>
				<name>Фабричная № 19, дом Туркина (1905)</name>
				<description><![CDATA[Памятник деревянного зодчества, принадлежал Н. А. Туркину, использовался им как жилой дом, являлся примером здания переходного типа от обычного крестьянского дома к городскому особняку. Дом был снесён в мае 2005 года после пожара.]]></description>
				<Point>
					<coordinates>82.91680097579956,55.017391277845014,0.0</coordinates>
				</Point>
			</Placemark>
			<Placemark>
				<styleUrl>#icon-melnica</styleUrl>
				<name>Макаронная фабрика (1910)</name>
				<description><![CDATA[Здание фабрики общества «Сибирский мукомол»]]></description>
				<Point>
					<coordinates>82.91146874427795,55.019783999762375,0.0</coordinates>
				</Point>
			</Placemark>
			<Placemark>
				<styleUrl>#icon-melnica</styleUrl>
				<name>Паровозное депо (1896)</name>
				<description><![CDATA[Месторасположение вокзала станции Обь. Первое промышленное здание Новониколаевска - паровозное депо]]></description>
				<Point>
					<coordinates>82.90739178657532,55.02329901215906,0.0</coordinates>
				</Point>
			</Placemark>
			<Placemark>
				<styleUrl>#icon-melnica</styleUrl>
				<name>Предположительное месторасположение первой мельницы Луканина (1905)</name>
				<description><![CDATA[Пятиэтажная деревянная мельница, ныне утраченная]]></description>
				<Point>
					<coordinates>82.91948854923248,55.015662770348115,0.0</coordinates>
				</Point>
			</Placemark>
			<Placemark>
				<styleUrl>#icon-melnica</styleUrl>
				<name>Тоннель-путепровод (1913)</name>
				<description><![CDATA[В 1913 году для связи города с прибрежной частью, строится тоннель-путепровод из монолитных рамных железобетонных конструкций. Декор тоннеля выполнен с использованием элементов, отсылающих к стилистики модерна.]]></description>
				<Point>
					<coordinates>82.89693117141724,55.031207431819176,0.0</coordinates>
				</Point>
			</Placemark>
			<Placemark>
				<styleUrl>#icon-melnica</styleUrl>
				<name>Фабричная 19а (1949г)</name>
				<Point>
					<coordinates>82.91577100753784,55.018009462612696,0.0</coordinates>
				</Point>
			</Placemark>
			<Placemark>
				<styleUrl>#icon-melnica</styleUrl>
				<name>Отель «Метрополь» (1905) </name>
				<description><![CDATA[Первоначально здание строилось как жилой дом для П.А. Мамонтова. Позднее оно перешло в собственность Я. А. Истомина, открывшего здесь в 1917 году гостиницу на 14 номеров]]></description>
				<Point>
					<coordinates>82.91081964969635,55.02332053796967,0.0</coordinates>
				</Point>
			</Placemark>
			<Placemark>
				<styleUrl>#icon-melnica</styleUrl>
				<name>Дом купца Кагана (1908)</name>
				<description><![CDATA[Принадлежал купцу Арону Иосифовичу Кагану, Новониколаевскому купцу - хлеботорговцу.]]></description>
				<Point>
					<coordinates>82.9147732257843,55.023108354475575,0.0</coordinates>
				</Point>
			</Placemark>
			<Placemark>
				<styleUrl>#icon-melnica</styleUrl>
				<name>Дом Е.Г. Иконниковой (1900)</name>
				<description><![CDATA[Имеются сведения, что участки, на которых построен дом, принадлежали торговому дому Е. Г. Иконниковой.]]></description>
				<Point>
					<coordinates>82.91636109352112,55.025340837585574,0.0</coordinates>
				</Point>
			</Placemark>
			<Placemark>
				<styleUrl>#icon-melnica</styleUrl>
				<name>Пристань</name>
				<Point>
					<coordinates>82.91453719139099,55.0154813034951,0.0</coordinates>
				</Point>
			</Placemark>
			<Placemark>
				<styleUrl>#icon-melnica</styleUrl>
				<name>Предположительное местонахождение крупчатой Мельницы Туркина</name>
				<Point>
					<coordinates>82.91669368752468,55.01682844500887,0.0</coordinates>
				</Point>
			</Placemark>
			<Placemark>
				<styleUrl>#icon-melnica</styleUrl>
				<name>Предположительное местоположение мельницы Новониколаевского Мукомольного Товарищества (1905)</name>
				<Point>
					<coordinates>82.92171478271484,55.01471851858892,0.0</coordinates>
				</Point>
			</Placemark>
			<Placemark>
				<styleUrl>#icon-melnica</styleUrl>
				<name>Максима Горького, 29</name>
				<description><![CDATA[Дом служащих госбанка. Построен в 1932—1935 гг. Архитектор А.Д. Крячков]]></description>
				<Point>
					<coordinates>82.91323900222778,55.02619566734198,0.0</coordinates>
				</Point>
			</Placemark>
			<Placemark>
				<styleUrl>#icon-melnica</styleUrl>
				<name>Памятник деревянного зодчества Коммунистическая, 3 (1910)</name>
				<description><![CDATA[Здание типа «городской доходный дом»]]></description>
				<Point>
					<coordinates>82.91176378726959,55.022810065635305,0.0</coordinates>
				</Point>
			</Placemark>
			<Placemark>
				<styleUrl>#icon-melnica</styleUrl>
				<name>Коммунистическая, 13 (1910)</name>
				<description><![CDATA[Пример деревянного модерна]]></description>
				<Point>
					<coordinates>82.91375398635864,55.02292692132171,0.0</coordinates>
				</Point>
			</Placemark>
			<Placemark>
				<styleUrl>#icon-melnica</styleUrl>
				<name>Дом Б.М. Мировича (1915)</name>
				<description><![CDATA[Коммунистическая, 19 ]]></description>
				<Point>
					<coordinates>82.9158890247345,55.02312680525879,0.0</coordinates>
				</Point>
			</Placemark>
			<Placemark>
				<styleUrl>#icon-melnica</styleUrl>
				<name>Коммуничтическая, 21 (1906)</name>
				<description><![CDATA[Принадлежал М. М. Розенфельду.]]></description>
				<Point>
					<coordinates>82.9161947965622,55.023157556545264,0.0</coordinates>
				</Point>
			</Placemark>
			<Placemark>
				<styleUrl>#icon-melnica</styleUrl>
				<name>Коммунистическая, 23 (1905 )</name>
				<description><![CDATA[Принадлежал Пятковой Марии Николаевне, минусинской мещанке. Использовался как доходный дом.]]></description>
				<Point>
					<coordinates>82.9165381193161,55.02320060830645,0.0</coordinates>
				</Point>
			</Placemark>
			<Placemark>
				<styleUrl>#icon-melnica</styleUrl>
				<name>Коммунистическая, 36 (1917)</name>
				<description><![CDATA[Дом принадлежал Ивану Федоровичу Стихину]]></description>
				<Point>
					<coordinates>82.91983723640442,55.0231145047376,0.0</coordinates>
				</Point>
			</Placemark>
			<Placemark>
				<styleUrl>#icon-melnica</styleUrl>
				<name>Коммунистичнеская, 43 (1912)</name>
				<description><![CDATA[Особняк купчихи М.Д. Жернаковой, пример купеческого жилого дома, характерного для дореволюционного Новониколаевска.]]></description>
				<Point>
					<coordinates>82.92342066764832,55.023861754549486,0.0</coordinates>
				</Point>
			</Placemark>
			<Placemark>
				<styleUrl>#icon-melnica</styleUrl>
				<name>Коммунистическая, 45 (1913)</name>
				<description><![CDATA[Принадлежал купцу П. М. Зедайну, использовался как жилой дом. ]]></description>
				<Point>
					<coordinates>82.92422533035278,55.02392018090233,0.0</coordinates>
				</Point>
			</Placemark>
			<Placemark>
				<styleUrl>#icon-melnica</styleUrl>
				<name>Красный проспект, 1 (1930)</name>
				<description><![CDATA[Управление треста «Запсибзолото» ]]></description>
				<Point>
					<coordinates>82.9223906993866,55.02021762688113,0.0</coordinates>
				</Point>
			</Placemark>
			<Placemark>
				<styleUrl>#icon-melnica</styleUrl>
				<name>Офис Туркина (1905)</name>
				<description><![CDATA[Дом использовался под контору мукомольного предприятия «Торговый дом Н. А. Туркина» и как жилье для его служащих.]]></description>
				<Point>
					<coordinates>82.91721940040588,55.01740050455341,0.0</coordinates>
				</Point>
			</Placemark>
			<Placemark>
				<styleUrl>#icon-gallery</styleUrl>
				<name>Новосибирский государственный художественный музей</name>
				<Point>
					<coordinates>82.92126085147333,55.02160122241581,0.0</coordinates>
				</Point>
			</Placemark>
			<Placemark>
				<styleUrl>#icon-gallery</styleUrl>
				<name>Музей имени Рериха</name>
				<Point>
					<coordinates>82.92000225396725,55.02297720828265,0.0</coordinates>
				</Point>
			</Placemark>
			<Placemark>
				<styleUrl>#icon-theater</styleUrl>
				<name>Театр «Красный Факел»</name>
				<Point>
					<coordinates>82.90824299999997,55.028581,0.0</coordinates>
				</Point>
			</Placemark>
			<Placemark>
				<styleUrl>#icon-cinema</styleUrl>
				<name>Кинотеатр Победа</name>
				<Point>
					<coordinates>82.91502600059152,55.02913228327179,0.0</coordinates>
				</Point>
			</Placemark>
			<Placemark>
				<styleUrl>#icon-park</styleUrl>
				<name>Первомайский сквер</name>
				<Point>
					<coordinates>82.91861234110456,55.02777953738599,0.0</coordinates>
				</Point>
			</Placemark>
			<Placemark>
				<styleUrl>#icon-architecture</styleUrl>
				<name>Собор Александра Невского</name>
				<Point>
					<coordinates>82.92252000000008,55.019538,0.0</coordinates>
				</Point>
			</Placemark>
			<Placemark>
				<styleUrl>#icon-music</styleUrl>
				<name>Филармония зал имени Каца</name>
				<Point>
					<coordinates>82.92471885681152,55.02170607010173,0.0</coordinates>
				</Point>
			</Placemark>
			<Placemark>
				<styleUrl>#icon-music</styleUrl>
				<name>Филармония - Камерный зал</name>
				<Point>
					<coordinates>82.92204800000002,55.027961,0.0</coordinates>
				</Point>
			</Placemark>
			<Placemark>
				<styleUrl>#icon-gallery</styleUrl>
				<name>Краеведческий музей</name>
				<Point>
					<coordinates>82.92028900000003,55.028747,0.0</coordinates>
				</Point>
			</Placemark>
			<Placemark>
				<styleUrl>#icon-music</styleUrl>
				<name>Театр оперы и балета</name>
				<Point>
					<coordinates>82.92452600000001,55.030491,0.0</coordinates>
				</Point>
			</Placemark>
			<Placemark>
				<styleUrl>#icon-park</styleUrl>
				<name>Сквер</name>
				<Point>
					<coordinates>82.92162895202637,55.030162084825434,0.0</coordinates>
				</Point>
			</Placemark>
			<Placemark>
				<styleUrl>#icon-park</styleUrl>
				<name>Сквер</name>
				<Point>
					<coordinates>82.913818359375,55.02796061786001,0.0</coordinates>
				</Point>
			</Placemark>
			<Placemark>
				<styleUrl>#icon-interesting</styleUrl>
				<name>Бар Friends</name>
				<Point>
					<coordinates>82.9231470823288,55.022674758625065,0.0</coordinates>
				</Point>
			</Placemark>
			<Placemark>
				<styleUrl>#icon-cafe</styleUrl>
				<name>Кофемолка</name>
				<Point>
					<coordinates>82.92288422584534,55.023434317061614,0.0</coordinates>
				</Point>
			</Placemark>
			<Placemark>
				<styleUrl>#icon-theater</styleUrl>
				<name>Академический молодежный театр Глобус</name>
				<Point>
					<coordinates>82.92831301689148,55.025353137423686,0.0</coordinates>
				</Point>
			</Placemark>
			<Placemark>
				<styleUrl>#icon-park</styleUrl>
				<name>Сквер у театра Глобус</name>
				<Point>
					<coordinates>82.92669296264648,55.02592507572222,0.0</coordinates>
				</Point>
			</Placemark>
			<Placemark>
				<styleUrl>#icon-architecture</styleUrl>
				<name>Стоквартирный дом</name>
				<Point>
					<coordinates>82.92490124702454,55.0206051194866,0.0</coordinates>
				</Point>
			</Placemark>
			<Placemark>
				<styleUrl>#icon-architecture</styleUrl>
				<name>Дом с часами</name>
				<Point>
					<coordinates>82.92169332504272,55.02333591354155,0.0</coordinates>
				</Point>
			</Placemark>
			<Placemark>
				<styleUrl>#icon-gallery</styleUrl>
				<name>Музей СССР</name>
				<Point>
					<coordinates>82.91064530611038,55.026103420404006,0.0</coordinates>
				</Point>
			</Placemark>
			<Placemark>
				<styleUrl>#icon-park</styleUrl>
				<name>Сквер</name>
				<Point>
					<coordinates>82.92389273643494,55.020229928291165,0.0</coordinates>
				</Point>
			</Placemark>
			<Placemark>
				<styleUrl>#icon-cinema</styleUrl>
				<name>Кинотеатр СИНЕМА</name>
				<Point>
					<coordinates>82.92487978935242,55.01937497130219,0.0</coordinates>
				</Point>
			</Placemark>
			<Placemark>
				<styleUrl>#icon-architecture</styleUrl>
				<name>Дом Речного флота</name>
				<Point>
					<coordinates>82.9198157787323,55.017062190523745,0.0</coordinates>
				</Point>
			</Placemark>
			<Placemark>
				<styleUrl>#icon-park</styleUrl>
				<name>Сквер с фонтаном</name>
				<Point>
					<coordinates>82.91707992553711,55.03090612871817,0.0</coordinates>
				</Point>
			</Placemark>
			<Placemark>
				<styleUrl>#icon-park</styleUrl>
				<name>Сквер героев революции</name>
				<Point>
					<coordinates>82.92321681976318,55.028126654501186,0.0</coordinates>
				</Point>
			</Placemark>
			<Placemark>
				<styleUrl>#icon-gallery</styleUrl>
				<name>Художественная галерея на Советской</name>
				<Point>
					<coordinates>82.9184103012085,55.023834078878934,0.0</coordinates>
				</Point>
			</Placemark>
			<Placemark>
				<styleUrl>#icon-cinema</styleUrl>
				<name>Кинотеатр Пионер</name>
				<Point>
					<coordinates>82.91852831840515,55.02682909058097,0.0</coordinates>
				</Point>
			</Placemark>
			<Placemark>
				<styleUrl>#icon-gallery</styleUrl>
				<name>Городской центр изобразительных искусств</name>
				<Point>
					<coordinates>82.9211676120758,55.022444120624016,0.0</coordinates>
				</Point>
			</Placemark>
			<Placemark>
				<styleUrl>#icon-theater</styleUrl>
				<name>Театральный клуб Пуля</name>
				<Point>
					<coordinates>82.9082179069519,55.029258145146294,0.0</coordinates>
				</Point>
			</Placemark>
			<Placemark>
				<styleUrl>#icon-cafe</styleUrl>
				<name>Перчини - ресторан</name>
				<Point>
					<coordinates>82.91926860809326,55.02957175918158,0.0</coordinates>
				</Point>
			</Placemark>
			<Placemark>
				<styleUrl>#icon-cafe</styleUrl>
				<name>Кондитерская Кузина</name>
				<Point>
					<coordinates>82.91571736335754,55.03113979254472,0.0</coordinates>
				</Point>
			</Placemark>
			<Placemark>
				<styleUrl>#icon-interesting</styleUrl>
				<name>Новосибирская государственная областная научная библиотека</name>
				<Point>
					<coordinates>82.9188072681427,55.02242566952659,0.0</coordinates>
				</Point>
			</Placemark>
			<Placemark>
				<styleUrl>#icon-cafe</styleUrl>
				<name>Кардамон кофейня</name>
				<Point>
					<coordinates>82.91553497314453,55.025660632146945,0.0</coordinates>
				</Point>
			</Placemark>
			<Placemark>
				<styleUrl>#icon-architecture</styleUrl>
				<name>Управление культуры Новосибирского района</name>
				<Point>
					<coordinates>82.91794896125793,55.017855686197834,0.0</coordinates>
				</Point>
			</Placemark>
			<Placemark>
				<styleUrl>#icon-park</styleUrl>
				<name>Парк Городское начало</name>
				<Point>
					<coordinates>82.9246973991394,55.011882553897514,0.0</coordinates>
				</Point>
			</Placemark>
			<Placemark>
				<styleUrl>#icon-park</styleUrl>
				<name>Набережная</name>
				<Point>
					<coordinates>82.92755126953125,55.01056600754653,0.0</coordinates>
				</Point>
			</Placemark>
			<Placemark>
				<styleUrl>#icon-architecture</styleUrl>
				<name>Православный приход</name>
				<Point>
					<coordinates>82.91358232498169,55.02416003556364,0.0</coordinates>
				</Point>
			</Placemark>
			<Placemark>
				<styleUrl>#icon-theater</styleUrl>
				<name>Театр Музкомедии</name>
				<Point>
					<coordinates>82.92643547058105,55.035400843865574,0.0</coordinates>
				</Point>
			</Placemark>
			<Placemark>
				<styleUrl>#icon-park</styleUrl>
				<name>Центральный парк</name>
				<Point>
					<coordinates>82.92441844940186,55.03436790333654,0.0</coordinates>
				</Point>
			</Placemark>
		</Folder>
		<Style id='icon-melnica'>
			<IconStyle>
				<color>ffffffff</color>
				<scale>1.1</scale>
				<Icon>
					<href>http://melnicaloft.ru/css/images/icons/melnica.png</href>
				</Icon>
			</IconStyle>
		</Style>
		<Style id='icon-park'>
			<IconStyle>
				<color>ffffffff</color>
				<scale>1.1</scale>
				<Icon>
					<href>http://melnicaloft.ru/css/images/icons/park.png</href>
				</Icon>
			</IconStyle>
		</Style>
		<Style id='icon-cafe'>
			<IconStyle>
				<color>ffffffff</color>
				<scale>1.1</scale>
				<Icon>
					<href>http://melnicaloft.ru/css/images/icons/cafe.png</href>
				</Icon>
			</IconStyle>
		</Style>
		<Style id='icon-cinema'>
			<IconStyle>
				<color>ffffffff</color>
				<scale>1.1</scale>
				<Icon>
					<href>http://melnicaloft.ru/css/images/icons/cinema.png</href>
				</Icon>
			</IconStyle>
		</Style>
		<Style id='icon-gallery'>
			<IconStyle>
				<color>ffffffff</color>
				<scale>1.1</scale>
				<Icon>
					<href>http://melnicaloft.ru/css/images/icons/gallery.png</href>
				</Icon>
			</IconStyle>
		</Style>
		<Style id='icon-architecture'>
			<IconStyle>
				<color>ffffffff</color>
				<scale>1.1</scale>
				<Icon>
					<href>http://melnicaloft.ru/css/images/icons/museum.png</href>
				</Icon>
			</IconStyle>
		</Style>
		<Style id='icon-music'>
			<IconStyle>
				<color>ffffffff</color>
				<scale>1.1</scale>
				<Icon>
					<href>http://melnicaloft.ru/css/images/icons/music.png</href>
				</Icon>
			</IconStyle>
		</Style>
		<Style id='icon-interesting'>
			<IconStyle>
				<color>ffffffff</color>
				<scale>1.1</scale>
				<Icon>
					<href>http://melnicaloft.ru/css/images/icons/nice.png</href>
				</Icon>
			</IconStyle>
		</Style>
		<Style id='icon-theater'>
			<IconStyle>
				<color>ffffffff</color>
				<scale>1.1</scale>
				<Icon>
					<href>http://melnicaloft.ru/css/images/icons/museum.png</href>
				</Icon>
			</IconStyle>
		</Style>
	</Document>
</kml>
