<?xml version='1.0' encoding='UTF-8'?>
<kml xmlns='http://www.opengis.net/kml/2.2'>
	<Document>
		<name>Мельница – культурная карта локации</name>
		<description><![CDATA[Мы отметили самые интересные места для культурной прогулки по городу вокруг Лофта Мельница]]></description>
		<Folder>
			<name>Локация</name>
			<Placemark>
				<styleUrl>#icon-melnica</styleUrl>
				<name>Лофт Мельница</name>
				<description><![CDATA[Лофт-проект — новое осмысление городского индустриального наследия и новая форма культурных коммуникаций в обществе]]></description>
				<Point>
					<coordinates>82.91188314557076,55.0193073120561,0.0</coordinates>
				</Point>
			</Placemark>
		</Folder>
		<Style id='icon-melnica'>
			<IconStyle>
				<color>ffffffff</color>
				<scale>1.1</scale>
				<Icon>
					<href>http://melnicaloft.ru/css/images/icons/melnica.png</href>
				</Icon>
			</IconStyle>
		</Style>
		<Style id='icon-park'>
			<IconStyle>
				<color>ffffffff</color>
				<scale>1.1</scale>
				<Icon>
					<href>http://melnicaloft.ru/css/images/icons/park.png</href>
				</Icon>
			</IconStyle>
		</Style>
		<Style id='icon-cafe'>
			<IconStyle>
				<color>ffffffff</color>
				<scale>1.1</scale>
				<Icon>
					<href>http://melnicaloft.ru/css/images/icons/cafe.png</href>
				</Icon>
			</IconStyle>
		</Style>
		<Style id='icon-cinema'>
			<IconStyle>
				<color>ffffffff</color>
				<scale>1.1</scale>
				<Icon>
					<href>http://melnicaloft.ru/css/images/icons/cinema.png</href>
				</Icon>
			</IconStyle>
		</Style>
		<Style id='icon-gallery'>
			<IconStyle>
				<color>ffffffff</color>
				<scale>1.1</scale>
				<Icon>
					<href>http://melnicaloft.ru/css/images/icons/gallery.png</href>
				</Icon>
			</IconStyle>
		</Style>
		<Style id='icon-architecture'>
			<IconStyle>
				<color>ffffffff</color>
				<scale>1.1</scale>
				<Icon>
					<href>http://melnicaloft.ru/css/images/icons/museum.png</href>
				</Icon>
			</IconStyle>
		</Style>
		<Style id='icon-music'>
			<IconStyle>
				<color>ffffffff</color>
				<scale>1.1</scale>
				<Icon>
					<href>http://melnicaloft.ru/css/images/icons/music.png</href>
				</Icon>
			</IconStyle>
		</Style>
		<Style id='icon-interesting'>
			<IconStyle>
				<color>ffffffff</color>
				<scale>1.1</scale>
				<Icon>
					<href>http://melnicaloft.ru/css/images/icons/nice.png</href>
				</Icon>
			</IconStyle>
		</Style>
		<Style id='icon-theater'>
			<IconStyle>
				<color>ffffffff</color>
				<scale>1.1</scale>
				<Icon>
					<href>http://melnicaloft.ru/css/images/icons/museum.png</href>
				</Icon>
			</IconStyle>
		</Style>
	</Document>
</kml>
